Project 1
…
StatsByGroup <- ProjectData3 %>% group_by(`Subject Race/Ethnicity`) %>% 
    summarize_if(is.numeric, list(Mean = mean, Min = min, Max = max, 
        Sd = sd, Var = var)) %>% pivot_longer(contains("_")) %>% 
    separate(name, into = c("Variable", "Statistic"), sep = "_") %>% 
    print

## # A tibble: 80 x 4
##    `Subject Race/Ethnicity` Variable                Statistic value
##    <fct>                    <chr>                   <chr>     <dbl>
##  1 Asian                    Hits                    Mean        4  
##  2 Asian                    Number of Officers      Mean        5  
##  3 Asian                    Officer Shooters        Mean        2  
##  4 Asian                    % of Officers Who Fired Mean        0.4
##  5 Asian                    Hits                    Min         4  
##  6 Asian                    Number of Officers      Min         5  
##  7 Asian                    Officer Shooters        Min         2  
##  8 Asian                    % of Officers Who Fired Min         0.4
##  9 Asian                    Hits                    Max         4  
## 10 Asian                    Number of Officers      Max         5  
## # … with 70 more rows

StatsBy2Groups <- ProjectData3 %>% group_by(`Subject Race/Ethnicity`, 
    `Subject Gender`) %>% summarize_if(is.numeric, list(Mean = mean)) %>% 
    pivot_longer(contains("_")) %>% separate(name, into = c("Variable", 
    "Statistic"), sep = "_") %>% print

## # A tibble: 24 x 5
## # Groups:   Subject Race/Ethnicity [4]
##    `Subject Race/Ethnicit… `Subject Gender` Variable             Statistic value
##    <fct>                   <fct>            <chr>                <chr>     <dbl>
##  1 Asian                   Male             Hits                 Mean      4    
##  2 Asian                   Male             Number of Officers   Mean      5    
##  3 Asian                   Male             Officer Shooters     Mean      2    
##  4 Asian                   Male             % of Officers Who F… Mean      0.4  
##  5 Black                   Female           Hits                 Mean      1    
##  6 Black                   Female           Number of Officers   Mean      2    
##  7 Black                   Female           Officer Shooters     Mean      1    
##  8 Black                   Female           % of Officers Who F… Mean      0.667
##  9 Black                   Male             Hits                 Mean      2.5  
## 10 Black                   Male             Number of Officers   Mean      2.81 
## # … with 14 more rows
…
